{
    "$schema": "https://json-schema.org/draft/2019-09/schema",
    "title": "move-module-schema",
    "description": "A schema to define the configuration file of the movement tool",
    "type": "object",
    "properties": {
        "dimensions": {
            "type": "object",
            "properties": {
                "xDimension": {"type": "number"},
                "yDimension": {"type": "number"},
                "zDimension": {"type": "number"},
                "additionalProperties": false
            }
        },
        "referencePoint": {"type": "string"},
        "devices": {
            "type": "array",
            "$defs": {
                "positive-number":{
                    "type": "number",
                    "minimum": 0
                }
            },
            "items": {
                "type": "object",
                "properties":{
                    "name": {
                        "type": "string",
                        "description": "The name of the axis"
                    },
                    "safetyOffset": {
                        "$ref": "#/$defs/positive-number",
                        "description": "offset after homing is done"
                    },
                    "maxDeviation":{
                        "$ref": "#/$defs/positive-number",
                        "description": "max deviation"
                    },
                    "fullStep_mm": {
                        "$ref": "#/$defs/positive-number",
                        "description": "Linear distance per one revolution"
                    },
                    "additionalOffset":{
                        "$ref": "#/$defs/positive-number",
                        "description": "Additional offset from requested"
                    },
                    "travelHightOffsetMm":{
                        "$ref": "#/$defs/positive-number",
                        "description": "The height of which the pipette travels"
                    },
                    "startingPoint":{
                        "$ref": "#/$defs/positive-number",
                        "description": "The botom left corner of slot 1"
                    },
                    "jogVelocityForward":{
                        "type": "integer",
                        "description": "Velocity in which to jog in forward direction"
                    },
                    "jogVelocityBackward":{
                        "type": "integer",
                        "description": "Velocity in which to jog in backward direction"
                    },
                    "maxMovementmm":{
                        "$ref": "#/$defs/positive-number",
                        "description": "The maximum that this axis can travel"
                    },
                    "motorStepsPerRev":{
                        "$ref": "#/$defs/positive-number",
                        "description": "The steps per one revolution of the motor"
                    },
                    "controllerSettings":{
                        "type": "object",
                        "description": "The motor controller specific configurations",
                        "properties":{
                            "controllerType":
                            {
                                "type": "string",
                                "description": "the type of the controller"
                            },
                            "id":{
                                "type": "integer",
                                "description": "The id in terms of controller reference"
                            },
                            "replyID":{
                                "type": "integer",
                                "description": "..."
                            },
                            "encoderAvailable":{
                                "type": "boolean",
                                "description": "If the controller supports an encoder"
                            },
                            "resolution":{
                                "type": "integer",
                                "description": "The microstep resolution(8-> 256 per one step)"
                            },
                            "runCurrent":{
                                "type": "integer",
                                "description": "The current in run mode"
                            },
                            "standbyCurrent":{
                                "type": "integer",
                                "description": "The current in standby mode"
                            },
                            "PWMAutoScale":{
                                "type": "integer"
                            },
                            "homeVelocity":{
                                "type": "integer",
                                "description": "The homing velocity in terms of steps/s"
                            },
                            "StallGuard2Treshold":{
                                "type": "integer",
                                "description": "Stall guard main parameter. Very sensitive"
                            },
                            "StopOnStallVelocity":{
                                "type": "integer",
                                "description": "Stall guard parameter"
                            },
                            "Stallguard2Filter":{
                                "type": "integer",
                                "description": "Stall guard parameter"
                            }
                        }
                    },
                    "rampSettings":{
                        "type": "object",
                        "description": "The settings of the movement ramp",
                        "properties":{
                            "startVelocity":{
                                "type": "integer",
                                "description": ""
                            },
                            "accelerationA1":{
                                "type": "integer",
                                "description": ""
                            },
                            "velocityV1":{
                                "type": "integer",
                                "description": ""
                            },
                            "maxAccelerationA2":{
                                "type": "integer",
                                "description": ""
                            },
                            "maxVelocity":{
                                "type": "integer",
                                "description": ""
                            },
                            "maxDecelerationD2":{
                                "type": "integer",
                                "description": ""
                            },
                            "decelerationD1":{
                                "type": "integer",
                                "description": ""
                            },
                            "stopVelocity":{
                                "type": "integer",
                                "description": ""
                            },
                            "rampWaitTime":{
                                "type": "integer",
                                "description": ""
                            }
                        }
                    }
                },
                "required": ["name", "safetyOffset", "maxDeviation", "fullStep_mm", "additionalOffset", "travelHightOffsetMm", "startingPoint", "jogVelocityForward",
                    "jogVelocityBackward", "motorStepsPerRev", "controllerSettings", "rampSettings"]
            }
        }
    }
}